{
    "news":[
        {
            "id": 1,
            "title": "Luati aminte!",
            "author": "Gheorghe Hagi",
            "content": "Copii, mergeti la scoala, ca si scoala este ceva!",
            "thumbnail": "http://radioconstanta.ro/wp-content/uploads/sites/9/2014/12/gicuta-400x250.jpg",
            "tags": "Hagi Romania"
        },
        {
            "id": 2,
            "title": "Pressure on Zidane",
            "author": "SkySports",
            "content": "Real Madrid players to blame for form, not Zinedine Zidane,",
            "thumbnail": "http://e1.365dm.com/16/09/16-9/20/cristiano-ronaldo-gareth-bale-real-madrid-zinedine-zidane_3790599.jpg?20160920134801",
            "tags": "RealMadrid Spain"
        },
        {
            "id": 3,
            "title": "Leicester City News",
            "author": "SkySports",
            "content": "Leicester must learn to cope with pressure of being champions",
            "thumbnail": "http://e2.365dm.com/16/04/768x432/rtx2abyb-1-2048x1536_3453808.jpg?20160423013904",
            "tags": "Leicester England"
        },
        {
            "id": 4,
            "title": "Problems at Barca",
            "author": "SkySports",
            "content": "Guillem Balague and Graham Hunter chat about the problems at Barcelona after they conceded four goals at Celta Vigo for the second consecutive year",
            "thumbnail": "http://liveloaded.com/wp-content/uploads/2016/10/Celta-Vigo-4-3-Barcelona-October-2-2016-La-Liga-Highlights.jpg",
            "tags": "Barcelona Spain"
        },
        {
            "id": 5,
            "title": "Chelse's transfer targets",
            "author": "SkySports",
            "content": "Chelsea's January transfer targets: Romelu Lukaku, Angel Di Maria ",
            "thumbnail": "http://e1.365dm.com/16/09/16-9/20/romelu-lukaku-everton-premier-league-goal-celeb-goodison-park-middlesbrough_3796619.jpg?20160929133222",
            "tags": "Chelsea Enagland"
        }

    ]
}